Name,BirthDate,Age,Sex,Event,Division,WeightClassKg,Squat1Kg,Squat2Kg,Squat3Kg,Best3SquatKg,Bench1Kg,Bench2Kg,Bench3Kg,Best3BenchKg,Deadlift1Kg,Deadlift2Kg,Deadlift3Kg,Best3DeadliftKg,TotalKg,Equipment,Place
Bryan White,1959-08-01,,M,SBD,M_OEM_APF,82.5,245,-260,-260,245,,,,,,,,,,Multi-ply,DQ
Kyle Kirby #2,1984-06-03,23,M,SBD,M_OEM_APF,90,-322,322,335,335,160,172.5,-185,172.5,257.5,275,-282.5,275,782.5,Multi-ply,1
Kurt Soilean,1980-05-24,27,M,SBD,M_OEM_APF,100,295,320,-342.5,320,-182.5,182.5,-197.5,182.5,275,300,-320,300,802.5,Multi-ply,1
Scott Prosek,1976-12-10,,M,SBD,M_OEM_APF,110,372.5,410,420,420,220,230,242.5,242.5,275,295,305,305,967.5,Multi-ply,1
Gunny Green,,36,M,SBD,M_OEM_APF,110,185,227.5,-272.5,227.5,300,,,300,205,227.5,-245,227.5,755,Multi-ply,2
Mitchell Downing,1986-11-04,20,M,SBD,M_OEM_APF,125,-275,275,-305,275,195,-220,-220,195,235,-247.5,247.5,247.5,717.5,Multi-ply,3
Allan Mehan,1972-10-13,34,M,SBD,M_OEM_APF,125,435,470,500,500,282.5,292.5,-305,292.5,305,332,-350,332,1124.5,Multi-ply,1
Brad Delaughter,1982-12-04,24,M,SBD,M_OEM_APF,125,307.5,325,337.5,337.5,192.5,210,222.5,222.5,260,280,-300,280,840,Multi-ply,2
Greg Theriot,1984-01-30,23,M,SBD,M_OEM_APF,140,437.5,-455,-455,437.5,-300,-300,,,347.5,365,,365,,Multi-ply,DQ
Robert Wilkerson,,,M,SBD,M_OR_APF,140+,,,387.5,387.5,245,,,245,,272,,272,904.5,Raw,1
Heliry Fletcher,1963-09-20,44,M,SBD,M_MEM_1_APF,100,357.5,387.5,-410,387.5,210,227.5,-240,227.5,-290,290,-320,290,905,Multi-ply,1
David Favre,1965-09-10,42,M,SBD,M_MEM_1_APF,125,-347.5,347.5,367.5,367.5,227.5,-252.5,252.5,252.5,260,-270,270,270,890,Multi-ply,1
Bob Phillips,,43,M,SBD,M_MEM_1_APF,140,355,377.5,390,390,-250,250,-260,250,287.5,-297.5,-297.5,287.5,927.5,Multi-ply,1
Bryan White,1959-08-01,48,M,SBD,M_MEM_2_APF,82.5,245,-260,-260,245,,,,,,,,,,Multi-ply,DQ
Terry Buckley,1959-07-27,48,M,SBD,M_MEM_2_APF,100,-205,-295,312.5,312.5,205,-220,-220,205,-250,-250,250,250,767.5,Multi-ply,1
Buddy McKee,1956-01-09,51,M,SBD,M_MEM_3_APF,125,-365,365,-375,365,240,-250,-250,240,250,260,-290,260,865,Multi-ply,1
Mike McDaniel,1956-06-01,51,M,SBD,M_MEM_3_APF,140,420,-455,-455,420,25,,,25,185,287.5,,287.5,732.5,Multi-ply,1
Rebecca Jordan,1990-04-05,17,F,SBD,F_TEM_2_APF,90+,192.5,222.5,232.5,232.5,125,135,137.5,137.5,160,175,190,190,560,Multi-ply,1
Eric Downey,1975-06-29,,M,B,M_OEM_APF,100,,,,,-277.5,-277.5,-277.5,,,,,,,Multi-ply,DQ
Jim Phelps,1974-06-26,33,M,B,M_OEM_APF,100,,,,,-215,-215,215,215,,,,,215,Multi-ply,1
Jason Sharp,1973-11-07,,M,B,M_OEM_APF,110,,,,,182.5,-190,-190,182.5,,,,,182.5,Multi-ply,1
Chris Senese,,,M,B,M_OEM_APF,125,,,,,-340,-340,-340,,,,,,,Multi-ply,DQ
Stewart Hawkins,1976-05-12,31,M,B,M_OEM_APF,140+,,,,,247.5,-272.5,-287.5,247.5,,,,,247.5,Multi-ply,1