Division,WeightClassKg,Place,Name,Team,BodyweightKg,Best3SquatKg,Best3BenchKg,Best3DeadliftKg,TotalKg,Equipment,Event,Sex
Boys,51.71,1,Jordan Wilkerson,Keller Central,51.62,170.1,108.86,204.12,483.08,Single-ply,SBD,M
Boys,51.71,2,Jakovi Dabbs,Paris,50.35,127.01,81.65,149.69,358.34,Single-ply,SBD,M
Boys,51.71,3,Gianluca Figueroa,Carrollton Smith,49.35,104.33,58.97,129.27,292.57,Single-ply,SBD,M
Boys,51.71,4,Ethan James,Melissa,51.62,113.4,61.23,111.13,285.76,Single-ply,SBD,M
Boys,51.71,5,Elijah Simental,Hurst Bell,51.17,104.33,43.09,124.74,272.16,Single-ply,SBD,M
Boys,51.71,6,DaeeQuan Johnson,Keller Fossil Ridge,50.8,83.91,54.43,111.13,249.48,Single-ply,SBD,M
Boys,55.79,1,Lane Anthony,Nevada Community,55.25,183.7,77.11,161.03,421.84,Single-ply,SBD,M
Boys,55.79,2,Pramis Subedi,Keller Fossil Ridge,55.34,151.95,65.77,147.42,365.14,Single-ply,SBD,M
Boys,55.79,3,Promise Ogbonna,Cedar Hill,55.7,142.88,68.04,147.42,358.34,Single-ply,SBD,M
Boys,55.79,4,Blayze Ferguson,Frisco Heritage,55.25,113.4,97.52,142.88,353.8,Single-ply,SBD,M
Boys,55.79,5,Zion Tidwell,Hurst Bell,55.52,99.79,54.43,124.74,278.96,Single-ply,SBD,M
Boys,55.79,DQ,Daniel Herron,Frisco Heritage,55.79,,,,,Single-ply,SBD,M
Boys,55.79,DQ,Finess McCuin,Paris,55.79,,,,,Single-ply,SBD,M
Boys,55.79,DQ,Stephen Gaut,Keller Central,52.8,154.22,102.06,,,Single-ply,SBD,M
Boys,59.87,1,Kevin Weiss,Plano,58.33,147.42,108.86,181.44,437.72,Single-ply,SBD,M
Boys,59.87,2,Kyle Amos,Royse City,59.78,158.76,74.84,154.22,387.82,Single-ply,SBD,M
Boys,59.87,3,Jose Peraza,Carrollton Smith,59.87,147.42,88.45,174.63,410.5,Single-ply,SBD,M
Boys,59.87,4,John Tran,Carrollton Creekview,58.15,142.88,92.99,170.1,405.97,Single-ply,SBD,M
Boys,59.87,5,Mike Womack,Princeton,59.6,145.15,102.06,142.88,390.09,Single-ply,SBD,M
Boys,59.87,6,Keane Ortega,Sadler S & S Cons,59.06,129.27,79.38,165.56,374.21,Single-ply,SBD,M
Boys,59.87,7,Conner Womack,Princeton,59.42,136.08,102.06,136.08,374.21,Single-ply,SBD,M
Boys,59.87,8,Ian Clark,Keller Central,59.69,165.56,86.18,138.35,390.09,Single-ply,SBD,M
Boys,59.87,9,Mason Vinson,Sanger,57.97,131.54,70.31,156.49,358.34,Single-ply,SBD,M
Boys,59.87,10,Gabriel Dorman,Nevada Community,59.69,92.99,61.23,97.52,251.74,Single-ply,SBD,M
Boys,59.87,DQ,Edwin Rodriquez,Pilot Point,59.87,,,,,Single-ply,SBD,M
Boys,67.13,1,Cameron Robbins,Keller Central,67.04,199.58,97.52,215.46,512.56,Single-ply,SBD,M
Boys,67.13,2,Jackson Haines,Prosper,67.13,190.51,127.01,192.78,510.29,Single-ply,SBD,M
Boys,67.13,3,Cartez Joseph,Mansfield Summit,66.59,183.7,124.74,181.44,489.88,Single-ply,SBD,M
Boys,67.13,4,Cameron Washington,Sherman,66.77,181.44,92.99,206.38,480.81,Single-ply,SBD,M
Boys,67.13,5,Elisha Jones,Cedar Hill,64.41,188.24,102.06,167.83,458.13,Single-ply,SBD,M
Boys,67.13,6,Chance Cruz,Argyle,63.5,174.63,86.18,192.78,453.59,Single-ply,SBD,M
Boys,67.13,7,Triston McDonald,Mansfield Timberview,65.86,190.51,92.99,167.83,451.32,Single-ply,SBD,M
Boys,67.13,8,GiTaeus Young,Paris,60.6,167.83,88.45,163.29,419.57,Single-ply,SBD,M
Boys,67.13,9,Zack Carter,Sanger,64.59,163.29,83.91,158.76,405.97,Single-ply,SBD,M
Boys,67.13,10,Marvin Reinoshek,Keller Fossil Ridge,63.32,142.88,83.91,161.03,387.82,Single-ply,SBD,M
Boys,67.13,11,Stephen Garcia,Carrollton Creekview,66.32,136.08,81.65,154.22,371.95,Single-ply,SBD,M
Boys,67.13,12,Henry Robinson,Argyle,66.68,124.74,74.84,149.69,349.27,Single-ply,SBD,M
Boys,67.13,DQ,Andrew Alcala,Mansfield Timberview,67.13,,,,,Single-ply,SBD,M
Boys,74.84,1,Draven Myles,Cedar Hill,72.3,206.38,120.2,199.58,526.17,Single-ply,SBD,M
Boys,74.84,2,Micah Justice,Sherman,74.84,201.85,117.93,206.38,526.17,Single-ply,SBD,M
Boys,74.84,3,Daniel Delgado,South Garland,74.12,197.31,115.67,204.12,517.1,Single-ply,SBD,M
Boys,74.84,4,Victor Martinez,Pilot Point,73.84,213.19,117.93,174.63,505.76,Single-ply,SBD,M
Boys,74.84,5,Cody Hunter,Sherman,70.31,174.63,115.67,206.38,496.68,Single-ply,SBD,M
Boys,74.84,6,Brendene Ramos,Castleberry,72.57,185.97,133.81,172.37,492.15,Single-ply,SBD,M
Boys,74.84,7,Montrel McCarty,Paris,70.49,176.9,104.33,201.85,483.08,Single-ply,SBD,M
Boys,74.84,8,Enrique Colmenero,Pilot Point,71.58,181.44,88.45,204.12,474,Single-ply,SBD,M
Boys,74.84,9,Caleb McKenzie,Castleberry,72.67,176.9,104.33,190.51,471.74,Single-ply,SBD,M
Boys,74.84,10,Gage Moore,Sadler S & S Cons,73.21,151.95,108.86,183.7,444.52,Single-ply,SBD,M
Boys,74.84,11,Daniel Voyles,Keller,71.49,163.29,90.72,170.1,424.11,Single-ply,SBD,M
Boys,74.84,12,Daniel Scherer,Keller Central,69.76,149.69,58.97,140.61,349.27,Single-ply,SBD,M
Boys,74.84,13,Misael Hernandez,Pilot Point,68.4,102.06,61.23,104.33,267.62,Single-ply,SBD,M
Boys,74.84,DQ,Santos Hernandez,Sanger,74.84,,,,,Single-ply,SBD,M
Boys,74.84,DQ,Joey Baggs,Sadler S & S Cons,74.84,,,,,Single-ply,SBD,M
Boys,74.84,DQ,Kevin Young,Cedar Hill,74.84,,,,,Single-ply,SBD,M
Boys,74.84,DQ,Colton Westbrook,Nevada Community,74.84,,,,,Single-ply,SBD,M
Boys,74.84,DQ,Parker Jack,Melissa,73.94,199.58,102.06,,,Single-ply,SBD,M
Boys,74.84,DQ,Mark Castle,Argyle,74.03,163.29,70.31,,,Single-ply,SBD,M
Boys,74.84,DQ,Dedryc Hutchins,Cedar Hill,74.03,,,,,Single-ply,SBD,M
Boys,82.1,1,Colton David,Keller Central,81.74,233.6,145.15,226.8,605.55,Single-ply,SBD,M
Boys,82.1,2,Aidan Murrey,Royse City,82.1,222.26,120.2,217.72,560.19,Single-ply,SBD,M
Boys,82.1,3,Antwon Ross,Frisco Heritage,82.1,208.65,117.93,222.26,548.85,Single-ply,SBD,M
Boys,82.1,4,Innis Mendoza,Pilot Point,79.29,213.19,142.88,185.97,542.04,Single-ply,SBD,M
Boys,82.1,5,Drayden Lawson,Pilot Point,80.47,199.58,117.93,219.99,537.51,Single-ply,SBD,M
Boys,82.1,6,Christian Medina,Weatherford,80.65,192.78,140.61,197.31,530.7,Single-ply,SBD,M
Boys,82.1,7,Carlos Amaro,Weatherford,81.74,206.38,131.54,183.7,521.63,Single-ply,SBD,M
Boys,82.1,8,John McCoy,Northwest Nelson,77.75,185.97,95.25,217.72,498.95,Single-ply,SBD,M
Boys,82.1,9,Sammy Maddux,Keller Fossil Ridge,80.83,161.03,92.99,185.97,439.98,Single-ply,SBD,M
Boys,82.1,10,John Vawar,Keller Fossil Ridge,78.11,170.1,90.72,176.9,437.72,Single-ply,SBD,M
Boys,82.1,11,Jose Bonilla,Keller Fossil Ridge,78.11,149.69,95.25,176.9,421.84,Single-ply,SBD,M
Boys,82.1,12,Jake Reynolds,Sadler S & S Cons,82.1,147.42,61.23,149.69,358.34,Single-ply,SBD,M
Boys,82.1,13,Dillon Oliver,Keller,81.28,104.33,56.7,124.74,285.76,Single-ply,SBD,M
Boys,82.1,DQ,Conner Smith,Sadler S & S Cons,82.1,,,,,Single-ply,SBD,M
Boys,82.1,DQ,Justin Ebarb,Nevada Community,82.1,,,,,Single-ply,SBD,M
Boys,82.1,DQ,Griffin Merillat,Royse City,81.1,199.58,106.59,,,Single-ply,SBD,M
Boys,82.1,DQ,Thatcher Davis,Royse City,81.01,,,,,Single-ply,SBD,M
Boys,82.1,DQ,Cameron Hill,Cedar Hill,80.74,233.6,127.01,,,Single-ply,SBD,M
Boys,89.81,1,Landon Sleeper,Keller Central,89.81,226.8,142.88,233.6,603.28,Single-ply,SBD,M
Boys,89.81,2,Brett Carter,Sanger,89.27,213.19,145.15,215.46,573.79,Single-ply,SBD,M
Boys,89.81,3,Colton Wilson,Nevada Community,84.19,226.8,113.4,219.99,560.19,Single-ply,SBD,M
Boys,89.81,4,Daniel Lackey,Krum,87.09,197.31,136.08,217.72,551.11,Single-ply,SBD,M
Boys,89.81,5,Xander Womack,Princeton,89.18,192.78,165.56,181.44,539.77,Single-ply,SBD,M
Boys,89.81,6,Eric Simpson,Keller Central,88.27,204.12,124.74,208.65,537.51,Single-ply,SBD,M
Boys,89.81,7,Sam Whittenburg,Sadler S & S Cons,89.63,192.78,120.2,204.12,517.1,Single-ply,SBD,M
Boys,89.81,8,Alex Reeder,Pilot Point,86.55,176.9,127.01,185.97,489.88,Single-ply,SBD,M
Boys,89.81,9,Jacob Wesley,Nevada Community,88.9,183.7,102.06,195.04,480.81,Single-ply,SBD,M
Boys,89.81,10,Tyler Balsarik,Keller Central,89.54,183.7,108.86,158.76,451.32,Single-ply,SBD,M
Boys,89.81,11,Jordan Ederson,Keller Fossil Ridge,83.1,154.22,72.57,199.58,426.38,Single-ply,SBD,M
Boys,89.81,DQ,Luis Marquez,Olney,89.81,,,,,Single-ply,SBD,M
Boys,89.81,DQ,Paul Gbolabo,Mansfield Timberview,89.36,206.38,,,,Single-ply,SBD,M
Boys,89.81,DQ,Dailyn Fuller,Cedar Hill,89.27,208.65,133.81,,,Single-ply,SBD,M
Boys,99.79,1,Cade McGuffin,Keller Central,99.79,244.94,147.42,226.8,619.15,Single-ply,SBD,M
Boys,99.79,2,Jaymathen Cooper,Cedar Hill,97.16,240.4,138.35,219.99,598.74,Single-ply,SBD,M
Boys,99.79,3,Zeke Baker,Weatherford,97.89,208.65,174.63,213.19,596.47,Single-ply,SBD,M
Boys,99.79,4,Brody Wiggins,Blue Ridge,99.61,226.8,165.56,204.12,596.47,Single-ply,SBD,M
Boys,99.79,5,Graham Burns,Forney,98.88,224.53,124.74,219.99,569.26,Single-ply,SBD,M
Boys,99.79,6,Radley Hamm,Whitewright,93.26,219.99,145.15,195.04,560.19,Single-ply,SBD,M
Boys,99.79,7,LaDavien Darden,Northwest Eaton,93.62,219.99,122.47,217.72,560.19,Single-ply,SBD,M
Boys,99.79,8,Brandon Woods,Whitewright,98.52,215.46,129.27,195.04,539.77,Single-ply,SBD,M
Boys,99.79,9,Chance Pittner,Sadler S & S Cons,98.7,170.1,124.74,133.81,428.64,Single-ply,SBD,M
Boys,99.79,10,Felipe Silva,Keller Central,95.53,156.49,83.91,127.01,367.41,Single-ply,SBD,M
Boys,99.79,DQ,Jaylen Estelle,Lancaster,95.44,197.31,140.61,,,Single-ply,SBD,M
Boys,99.79,DQ,Edgar Aguilar,Sadler S & S Cons,95.35,197.31,127.01,,,Single-ply,SBD,M
Boys,99.79,DQ,Kody Kerr,Sadler S & S Cons,90.99,192.78,106.59,,,Single-ply,SBD,M
Boys,99.79,DQ,Austin Korbe,Keller Central,97.52,,,,,Single-ply,SBD,M
Boys,99.79,DQ,Brandon Fangman,Pilot Point,97.7,188.24,142.88,,,Single-ply,SBD,M
Boys,99.79,DQ,Ife Oyejida,Mansfield Timberview,93.89,,,,,Single-ply,SBD,M
Boys,109.77,1,Mystery Fields,Cedar Hill,103.15,260.82,145.15,213.19,619.15,Single-ply,SBD,M
Boys,109.77,2,Will Harbour,Frisco Reedy,105.51,226.8,154.22,226.8,607.81,Single-ply,SBD,M
Boys,109.77,3,Michael Henderson,Carrollton Ranchview,107.05,208.65,149.69,226.8,585.13,Single-ply,SBD,M
Boys,109.77,4,Justin Shipman,Northwest Eaton,107.59,233.6,140.61,208.65,582.87,Single-ply,SBD,M
Boys,109.77,5,Quaylynn Burkes,Sanger,108.59,222.26,138.35,197.31,557.92,Single-ply,SBD,M
Boys,109.77,6,Satchel Swain,Paris,103.87,204.12,129.27,195.04,528.44,Single-ply,SBD,M
Boys,109.77,7,JT Sleeper,Keller Central,109.41,204.12,138.35,183.7,526.17,Single-ply,SBD,M
Boys,109.77,8,Ben Beggs,Pilot Point,103.87,181.44,104.33,185.97,471.74,Single-ply,SBD,M
Boys,109.77,9,Graison Parson,Keller Central,106.05,149.69,74.84,142.88,367.41,Single-ply,SBD,M
Boys,109.77,DQ,Quinton Pearson,Weatherford,109.77,,,,,Single-ply,SBD,M
Boys,109.77,DQ,Demondre Green,Mansfield Timberview,109.23,,,,,Single-ply,SBD,M
Boys,109.77,DQ,Armani Cathey,Mansfield Timberview,103.69,,,,,Single-ply,SBD,M
Boys,109.77,DQ,Desmond Frazier,Lancaster,101.33,192.78,,,,Single-ply,SBD,M
Boys,109.77,DQ,Connor Lynch #3,Pilot Point,106.68,217.72,136.08,,,Single-ply,SBD,M
Boys,109.77,DQ,Cameron Rose,Frisco Heritage,107.14,267.62,140.61,,,Single-ply,SBD,M
Boys,124.74,1,Adrian Alcantara,Keller Central,124.19,288.03,156.49,226.8,671.32,Single-ply,SBD,M
Boys,124.74,2,Cayde Taylor,Weatherford,122.11,249.48,188.24,210.92,648.64,Single-ply,SBD,M
Boys,124.74,3,Brent Self,Northwest Nelson,119.39,254.01,138.35,235.87,628.23,Single-ply,SBD,M
Boys,124.74,4,Bavly BeBawy,Hurst Bell,122.83,217.72,124.74,204.12,546.58,Single-ply,SBD,M
Boys,124.74,5,Ramses Ortega,Hurst Bell,111.4,215.46,127.01,161.03,503.49,Single-ply,SBD,M
Boys,124.74,6,Charles Sanders,Castleberry,112.42,188.24,127.01,174.63,489.88,Single-ply,SBD,M
Boys,124.74,7,Parker McElwee,Keller,110.77,190.51,106.59,174.63,471.74,Single-ply,SBD,M
Boys,124.74,DQ,Ethan Thomas,Sadler S & S Cons,124.74,,,,,Single-ply,SBD,M
Boys,124.74,DQ,Dayne Kelley,Sherman Texoma Christian School,124.74,,,,,Single-ply,SBD,M
Boys,124.74,DQ,Garrett Bowen,Melissa,124.74,231.33,124.74,,,Single-ply,SBD,M
Boys,124.74,DQ,Trevor Duggan,Melissa,122.65,249.48,,,,Single-ply,SBD,M
Boys,124.74,DQ,Antonio Reader,Carrollton Ranchview,115.58,226.8,120.2,,,Single-ply,SBD,M
Boys,124.74,DQ,Dayven Monroe,Lancaster,122.2,,,,,Single-ply,SBD,M
Boys,124.74+,1,Marcus Sanchez,South Garland,132.54,272.16,149.69,213.19,635.03,Single-ply,SBD,M
Boys,124.74+,2,Aaron Prideaux,Prosper,141.25,256.28,149.69,201.85,607.81,Single-ply,SBD,M
Boys,124.74+,3,Tyler Smith,Sherman,142.07,240.4,122.47,238.14,601.01,Single-ply,SBD,M
Boys,124.74+,4,Josh Hicks,Argyle,126.82,244.94,131.54,192.78,569.26,Single-ply,SBD,M
Boys,124.74+,5,Drake Stephens,Bells,141.34,233.6,122.47,170.1,526.17,Single-ply,SBD,M
Boys,124.74+,6,Curtis Townzen,Keller Fossil Ridge,129.27,170.1,122.47,170.1,462.66,Single-ply,SBD,M
Boys,124.74+,DQ,Jonathan Govan,Lancaster,127.01,,,,,Single-ply,SBD,M
Boys,124.74+,DQ,Jackson Skelton,Northwest Eaton,128.28,242.67,147.42,,,Single-ply,SBD,M
Boys,124.74+,DQ,Bill Overton,Denton Guyer,137.26,258.55,129.27,,,Single-ply,SBD,M
