Division,WeightClassKg,Place,Name,Team,BodyweightKg,Best3SquatKg,Best3BenchKg,Best3DeadliftKg,TotalKg,Equipment,Event,Sex,BirthDate
Boys,51.71,1,Héctor Ramírez,Roma,50.35,142.88,86.18,149.69,378.75,Single-ply,SBD,M,
Boys,51.71,2,Francisco Villlarreal,Laredo Nixon,48.08,115.67,79.38,136.08,331.12,Single-ply,SBD,M,
Boys,51.71,3,Daniel Rios,Roma,51.48,102.06,77.11,120.2,299.37,Single-ply,SBD,M,
Boys,51.71,4,Adam Moncada,Laredo Martin,51.48,97.52,56.7,92.99,247.21,Single-ply,SBD,M,
Boys,55.79,1,Silverio Martinez,Roma,55.79,145.15,68.04,142.88,356.07,Single-ply,SBD,M,
Boys,55.79,2,Alexander Moncada,Laredo Martin,53.52,133.81,56.7,133.81,324.32,Single-ply,SBD,M,
Boys,59.87,1,Nolan Raya,Laredo United South,59.19,154.22,92.99,158.76,405.97,Single-ply,SBD,M,
Boys,59.87,2,Jacob Maertinez,Hebbronville,59.65,142.88,81.65,154.22,378.75,Single-ply,SBD,M,
Boys,59.87,3,Jesus de la Rosa,Laredo Nixon,57.15,122.47,65.77,138.35,326.59,Single-ply,SBD,M,
Boys,59.87,4,Jesus Garza,Laredo Cigarroa,58.97,115.67,68.04,124.74,308.44,Single-ply,SBD,M,
Boys,59.87,5,Damian Guerra,Dilley,56.25,108.86,56.7,102.06,267.62,Single-ply,SBD,M,
Boys,67.13,1,Rey Villastrigo,Laredo United,64.18,151.95,102.06,192.78,446.79,Single-ply,SBD,M,
Boys,67.13,2,Baltazar Perez,Roma,64.86,136.08,92.99,176.9,405.97,Single-ply,SBD,M,
Boys,67.13,3,Rolando Ramos,Hebbronville,61.23,131.54,90.72,149.69,371.95,Single-ply,SBD,M,
Boys,67.13,4,Jonathan Sonnier-Ruiz,Laredo Martin,63.28,151.95,68.04,145.15,365.14,Single-ply,SBD,M,
Boys,67.13,5,Miguel Terrazas,Laredo Nixon,65.09,133.81,83.91,133.81,351.53,Single-ply,SBD,M,
Boys,67.13,6,Ashton Barnes,Laredo United,64.41,115.67,83.91,142.88,342.46,Single-ply,SBD,M,
Boys,67.13,7,Damian Rodriguez,Dilley,61.23,115.67,74.84,145.15,335.66,Single-ply,SBD,M,
Boys,67.13,8,Oscar Vez,Laredo Cigarroa,61.23,115.67,68.04,136.08,319.78,Single-ply,SBD,M,
Boys,67.13,9,Duece Cano,Dilley,65.09,102.06,90.72,124.74,317.51,Single-ply,SBD,M,
Boys,67.13,10,Luis Sambrano,Dilley,63.73,117.93,68.04,115.67,301.64,Single-ply,SBD,M,
Boys,67.13,DQ,Sebastian Alvarado,Laredo United,65.32,,,,,Single-ply,SBD,M,
Boys,74.84,1,Joe Chick,Zapata,71.44,197.31,117.93,204.12,519.36,Single-ply,SBD,M,
Boys,74.84,2,Carlos Gonzales,Dilley,73.26,183.7,102.06,185.97,471.74,Single-ply,SBD,M,
Boys,74.84,3,Luis Mendez,Laredo United,70.99,165.56,97.52,183.7,446.79,Single-ply,SBD,M,
Boys,74.84,4,Leonel Guerrero,Hebbronville,74.39,174.63,106.59,165.56,446.79,Single-ply,SBD,M,
Boys,74.84,5,Adrian Garza,Zapata,70.08,167.83,83.91,174.63,426.38,Single-ply,SBD,M,
Boys,74.84,6,Marco Gonzalez,Laredo Cigarroa,74.39,156.49,106.59,158.76,421.84,Single-ply,SBD,M,
Boys,74.84,7,Brandon Hernandez,Laredo United,74.84,149.69,102.06,163.29,415.04,Single-ply,SBD,M,
Boys,74.84,8,Julian Flores,Laredo United South,71.89,156.49,88.45,165.56,410.5,Single-ply,SBD,M,
Boys,74.84,9,Alex De La Rosa,Dilley,67.81,138.35,106.59,154.22,399.16,Single-ply,SBD,M,
Boys,74.84,10,Steve Loring,Laredo United,73.71,133.81,97.52,167.83,399.16,Single-ply,SBD,M,
Boys,74.84,11,Ivan Diaz,Laredo Nixon,70.08,140.61,81.65,170.1,392.36,Single-ply,SBD,M,
Boys,74.84,12,Alex Vasquez,Laredo United,73.94,133.81,70.31,142.88,347,Single-ply,SBD,M,
Boys,74.84,13,Jorge Lara,Laredo Johnson,69.85,124.74,70.31,142.88,337.93,Single-ply,SBD,M,
Boys,74.84,14,Jose Lucatero,Laredo Martin,68.49,151.95,61.23,108.86,322.05,Single-ply,SBD,M,
Boys,74.84,15,Anthony Vasquez,Laredo United South,71.89,120.2,79.38,120.2,319.78,Single-ply,SBD,M,
Boys,74.84,16,Eduardo Garcia,Laredo Alexander,72.57,102.06,65.77,151.95,319.78,Single-ply,SBD,M,
Boys,74.84,17,Agustin Garcia,Zapata,73.94,106.59,72.57,104.33,283.5,Single-ply,SBD,M,
Boys,74.84,18,Gabirel Martinez,Laredo Johnson,73.03,83.91,90.72,104.33,278.96,Single-ply,SBD,M,
Boys,82.1,1,Damian Gutierrez,Roma,81.65,215.46,142.88,215.46,573.79,Single-ply,SBD,M,
Boys,82.1,2,Caleb Marshall,Hebbronville,81.87,206.38,145.15,201.85,553.38,Single-ply,SBD,M,
Boys,82.1,3,David Saldana,Zapata,77.11,204.12,122.47,208.65,535.24,Single-ply,SBD,M,
Boys,82.1,4,Isiah Chavera,Hebbronville,79.61,183.7,115.67,188.24,487.61,Single-ply,SBD,M,
Boys,82.1,5,Carlos Carrillo,Laredo Martin,77.56,188.24,104.33,188.24,480.81,Single-ply,SBD,M,
Boys,82.1,6,Trystan Colon,Laredo United,75.75,183.7,106.59,183.7,474,Single-ply,SBD,M,
Boys,82.1,7,Andrew Sosa,Laredo Nixon,81.19,161.03,99.79,195.04,455.86,Single-ply,SBD,M,
Boys,82.1,8,Erick Garcia,Zapata,80.74,158.76,117.93,176.9,453.59,Single-ply,SBD,M,
Boys,82.1,9,Bruno Guajardo,Laredo United,79.15,147.42,102.06,179.17,428.64,Single-ply,SBD,M,
Boys,82.1,10,Rene Gonzalez,Zapata,80.97,120.2,102.06,133.81,356.07,Single-ply,SBD,M,
Boys,82.1,11,Jose Garza,Laredo Nixon,79.38,117.93,68.04,142.88,328.85,Single-ply,SBD,M,
Boys,82.1,12,Mark Rodriguez,Laredo United South,79.83,92.99,74.84,158.76,326.59,Single-ply,SBD,M,
Boys,82.1,13,Marcos Valadez Ramos,Laredo Johnson,79.38,113.4,74.84,122.47,310.71,Single-ply,SBD,M,
Boys,82.1,14,David Vera,Laredo Alexander,80.06,113.4,70.31,106.59,290.3,Single-ply,SBD,M,
Boys,82.1,DQ,Renato Hernandez,Laredo United,82.1,,,,,Single-ply,SBD,M,
Boys,89.81,1,Dale Baez,Hebbronville,82.55,222.26,133.81,197.31,553.38,Single-ply,SBD,M,
Boys,89.81,2,Jordan Rock,Roma,85.73,199.58,104.33,217.72,521.63,Single-ply,SBD,M,
Boys,89.81,3,Brandon Salazar,Hebbronville,84.59,170.1,154.22,192.78,517.1,Single-ply,SBD,M,
Boys,89.81,4,Domingo Mendiola,Laredo Nixon,86.64,183.7,113.4,208.65,505.76,Single-ply,SBD,M,
Boys,89.81,5,Paul Baez,Hebbronville,85.28,199.58,124.74,158.76,483.08,Single-ply,SBD,M,
Boys,89.81,6,Vicente Correa,Dilley,88.22,185.97,97.52,190.51,474,Single-ply,SBD,M,
Boys,89.81,7,Eddie Rodriguez,Laredo Johnson,88.45,165.56,106.59,156.49,428.64,Single-ply,SBD,M,
Boys,89.81,8,Gael Soto,Laredo United,88.68,142.88,129.27,131.54,403.7,Single-ply,SBD,M,
Boys,89.81,9,Dominik Ledezma,Laredo Johnson,89.81,174.63,83.91,138.35,396.89,Single-ply,SBD,M,
Boys,89.81,10,Andres Rodriguez,Laredo Nixon,89.36,142.88,83.91,170.1,396.89,Single-ply,SBD,M,
Boys,89.81,11,Abel Sanchez,Laredo Nixon,83.23,136.08,88.45,158.76,383.29,Single-ply,SBD,M,
Boys,89.81,12,Hilario Alfaro,Laredo United South,88.22,133.81,90.72,145.15,369.68,Single-ply,SBD,M,
Boys,89.81,13,Andrew Guerra,Laredo Alexander,87.09,131.54,79.38,156.49,367.41,Single-ply,SBD,M,
Boys,89.81,14,Augustin Meza,Laredo Alexander,88.68,124.74,68.04,174.63,367.41,Single-ply,SBD,M,
Boys,89.81,15,Pedro Contreras,Laredo Martin,84.14,147.42,74.84,138.35,360.61,Single-ply,SBD,M,
Boys,89.81,16,Chistopher Tijerina,Laredo Alexander,86.18,102.06,83.91,158.76,344.73,Single-ply,SBD,M,
Boys,99.79,1,Jose Lopez,Roma,98.66,294.84,127.01,258.55,680.39,Single-ply,SBD,M,
Boys,99.79,2,Roel de los Santos,Zapata,91.4,226.8,133.81,242.67,603.28,Single-ply,SBD,M,
Boys,99.79,3,Aaron Ramirez,Dilley,92.53,226.8,142.88,226.8,596.47,Single-ply,SBD,M,
Boys,99.79,4,Max Blanco,Laredo Cigarroa,99.79,219.99,111.13,229.06,560.19,Single-ply,SBD,M,
Boys,99.79,5,Javier Amador,Laredo Martin,99.34,199.58,108.86,188.24,496.68,Single-ply,SBD,M,
Boys,99.79,6,Mario Gonzalez,Laredo Johnson,97.52,183.7,86.18,204.12,474,Single-ply,SBD,M,
Boys,99.79,7,Guadalupe Garcia,Zapata,99.11,158.76,104.33,185.97,449.06,Single-ply,SBD,M,
Boys,99.79,8,Jorge Medrano,Laredo United South,99.79,151.95,113.4,149.69,415.04,Single-ply,SBD,M,
Boys,99.79,9,Adrian Carrazco,Dilley,99.79,156.49,106.59,149.69,412.77,Single-ply,SBD,M,
Boys,99.79,10,Javier Lozano,Laredo Nixon,91.4,158.76,77.11,163.29,399.16,Single-ply,SBD,M,
Boys,99.79,11,Angel Garza,Laredo Nixon,95.03,142.88,88.45,158.76,390.09,Single-ply,SBD,M,
Boys,99.79,12,Chris Espinoza,Laredo United South,91.85,142.88,88.45,149.69,381.02,Single-ply,SBD,M,
Boys,99.79,13,Leroy Gutierrez,Laredo Martin,94.35,147.42,70.31,151.95,369.68,Single-ply,SBD,M,
Boys,99.79,14,Gabriel Elizondo,Laredo United South,96.39,156.49,79.38,131.54,367.41,Single-ply,SBD,M,
Boys,99.79,15,Alfonso Trevino,Laredo Johnson,92.08,136.08,83.91,142.88,362.87,Single-ply,SBD,M,
Boys,99.79,DQ,Emilio Alvarez,Laredo Alexander,97.98,,,,,Single-ply,SBD,M,
Boys,109.77,1,Martin Navarro,Zapata,109.54,269.89,145.15,215.46,630.49,Single-ply,SBD,M,
Boys,109.77,2,Robert Ramos,Roma,102.51,263.08,124.74,217.72,605.55,Single-ply,SBD,M,
Boys,109.77,3,Fransisco Galaviz,Laredo Johnson,109.77,226.8,117.93,226.8,571.53,Single-ply,SBD,M,
Boys,109.77,4,Jesus Garcia,Roma,104.55,226.8,111.13,199.58,537.51,Single-ply,SBD,M,
Boys,109.77,5,Kaden Vega,Dilley,109.77,204.12,97.52,195.04,496.68,Single-ply,SBD,M,
Boys,109.77,6,Jaime Garcia,Zapata,106.82,188.24,127.01,172.37,487.61,Single-ply,SBD,M,
Boys,109.77,7,Felipe Rodriguez,Laredo Cigarroa,109.77,185.97,115.67,183.7,485.34,Single-ply,SBD,M,
Boys,109.77,8,Eleazar Guerra,Laredo United South,103.87,179.17,113.4,179.17,471.74,Single-ply,SBD,M,
Boys,109.77,9,Lauro Soto,Laredo Cigarroa,106.37,188.24,111.13,172.37,471.74,Single-ply,SBD,M,
Boys,109.77,10,Santiago Valdivia,Laredo Nixon,102.29,145.15,122.47,181.44,449.06,Single-ply,SBD,M,
Boys,109.77,11,Adan Hinojosa,Laredo Alexander,100.92,161.03,92.99,183.7,437.72,Single-ply,SBD,M,
Boys,109.77,12,Levi Gallegos,Laredo United South,103.19,111.13,108.86,181.44,401.43,Single-ply,SBD,M,
Boys,109.77,13,Arturo Guerra,Laredo Martin,104.78,151.95,74.84,147.42,374.21,Single-ply,SBD,M,
Boys,109.77,14,Rodrigo Herrera,Laredo Cigarroa,104.78,111.13,70.31,129.27,310.71,Single-ply,SBD,M,
Boys,124.74,1,Akileo Guerra,Roma,119.98,238.14,170.1,219.99,628.23,Single-ply,SBD,M,
Boys,124.74,2,Laurencio Lopez,Roma,114.76,244.94,147.42,226.8,619.15,Single-ply,SBD,M,
Boys,124.74,3,Dustin Dominguez,Dilley,124.74,226.8,142.88,204.12,573.79,Single-ply,SBD,M,
Boys,124.74,4,Christian Jimenez,Laredo Alexander,113.62,183.7,102.06,183.7,469.47,Single-ply,SBD,M,
Boys,124.74,5,Robert Benavides,Zapata,123.83,183.7,124.74,142.88,451.32,Single-ply,SBD,M,
Boys,124.74,6,Tolbert Garcia,Laredo Alexander,119.07,151.95,83.91,142.88,378.75,Single-ply,SBD,M,
Boys,124.74,7,Francisco Santos,Laredo Martin,119.98,142.88,70.31,161.03,374.21,Single-ply,SBD,M,
Boys,124.74,8,Juan Trejo,Laredo Cigarroa,118.39,165.56,70.31,133.81,369.68,Single-ply,SBD,M,
Boys,124.74,9,Ehud Mendez,Laredo Alexander,113.62,136.08,83.91,142.88,362.87,Single-ply,SBD,M,
Boys,124.74,10,Jayden Valderaz,Hebbronville,113.17,113.4,61.23,136.08,310.71,Single-ply,SBD,M,
Boys,124.74+,1,Claudio Padilla,Laredo Johnson,131.09,254.01,142.88,249.48,646.37,Single-ply,SBD,M,
Boys,124.74+,2,Manuel Torres,Laredo Cigarroa,136.98,224.53,142.88,217.72,585.13,Single-ply,SBD,M,
Boys,124.74+,3,Juan Valadez,Laredo Martin,136.53,233.6,142.88,204.12,580.6,Single-ply,SBD,M,
Boys,124.74+,4,Pablo Torres,Laredo Johnson,173.95,249.48,113.4,217.72,580.6,Single-ply,SBD,M,
Boys,124.74+,5,Ademar Garcia,Hebbronville,135.17,242.67,120.2,195.04,557.92,Single-ply,SBD,M,
Boys,124.74+,6,Christopher Rodriguez,Hebbronville,134.72,222.26,131.54,199.58,553.38,Single-ply,SBD,M,
Boys,124.74+,7,Marcus Vara,Laredo Martin,129.27,210.92,115.67,185.97,512.56,Single-ply,SBD,M,
Boys,124.74+,8,Christopher Castro,Laredo Nixon,141.97,192.78,97.52,183.7,474,Single-ply,SBD,M,
Boys,124.74+,9,Daymeonn Vercher,Laredo United South,127.23,167.83,92.99,197.31,458.13,Single-ply,SBD,M,
Boys,124.74+,10,Jorge Rangel,Laredo Cigarroa,128.37,183.7,86.18,165.56,435.45,Single-ply,SBD,M,
Boys,124.74+,11,Juan Guerra,Laredo Alexander,151.5,183.7,115.67,115.67,415.04,Single-ply,SBD,M,
Boys,124.74+,12,Esteban Garcia,Laredo Cigarroa,128.37,161.03,74.84,133.81,369.68,Single-ply,SBD,M,
Boys,124.74+,13,Alex Alvarez,Dilley,125.19,34.02,43.09,61.23,138.35,Single-ply,SBD,M,
