Name,Division,BodyweightKg,WeightClassKg,Age,Sex,Equipment,Squat1Kg,Squat2Kg,Squat3Kg,Best3SquatKg,Bench1Kg,Bench2Kg,Bench3Kg,Best3BenchKg,Deadlift1Kg,Deadlift2Kg,Deadlift3Kg,Best3DeadliftKg,TotalKg,Event,Place
Tracy Jones #2,Masters 2,82.4,84,54,F,Raw,70,75,85,85,32.5,-37.5,40,40,90,100,-115,100,225,SBD,1
Lana McCarthy,Open,62.8,63,31,F,Raw,70,80,-87.5,80,40,45,-47.5,45,100,-110,110,110,235,SBD,1
Rachel Burt,Open,71.9,72,27,F,Raw,65,75,-85,75,40,45,50,50,90,110,-120,110,235,SBD,1
Emaa Tope,Open,66.5,72,27,F,Raw,75,80,85,85,35,40,45,45,85,92.5,100,100,230,SBD,2
Lexi White,Juniors,55,57,22,F,Raw,85,92.5,100,100,45,50,-55,50,100,110,115,115,265,SBD,1
Bill Henderson,Masters 2,102,105,57,M,Raw,200,210,217.5,217.5,100,110,120,120,220,240,260,260,597.5,SBD,1
Kahl Olsen,Masters 1,82.3,83,41,M,Raw,125,135,145,145,105,110,115,115,190,205,215,215,475,SBD,1
Jeewan Kumar,Open,68.9,74,30,M,Raw,120,130,140,140,105,110,112.5,112.5,165,175,180,180,432.5,SBD,1
Taylor Elly,Open,81.4,83,24,M,Raw,170,180,-190,180,100,105,-110,105,210,220,230,230,515,SBD,1
Dom Burt,Open,85,93,30,M,Raw,100,120,145,145,70,85,-100,85,160,180,205,205,435,SBD,1
Joshua Whyman,Open,86.5,93,30,M,Raw,120,130,140,140,-85,85,100,100,140,150,-180,150,390,SBD,2
Herman Ah Kiong,Open,105,105,40,M,Raw,205,210,-215,210,140,-145,-145,140,245,260,270,270,620,SBD,1
Byshee Blackburn,Open,94.7,105,29,M,Raw,170,180,190,190,115,120,130,130,210,222.5,232.5,232.5,552.5,SBD,2
David Jones,Open,102.8,105,36,M,Raw,180,190,-200,190,105,110,-115,110,210,220,230,230,530,SBD,3
David Bancroft,Open,96.4,105,39,M,Raw,100,110,130,130,80,87.5,-92.5,87.5,120,140,170,170,387.5,SBD,4
Peter Dickson,Open,105.3,120,28,M,Raw,180,200,210,210,-110,110,-115,110,200,210,220,220,540,SBD,1
Sean Meagher,Juniors,99.1,105,18,M,Raw,-135,145,152.5,152.5,105,115,120,120,180,190,200,200,472.5,SBD,1
Harrison Richards,Sub-Juniors,73.1,74,16,M,Raw,117.5,125,130,130,82.5,87.5,92.5,92.5,180,190,200,200,422.5,SBD,1
Tasha Williams,Open,83.2,84,44,F,Raw,,,,,85,92.5,-100,92.5,,,,,92.5,B,1
Aimee Lynch,Open,162.2,84+,33,F,Raw,,,,,90,92.5,-95,92.5,,,,,92.5,B,1
Tammie Gibson,Open,118.6,84+,38,F,Raw,,,,,60,65,-70,65,,,,,65,B,1
Matt Jonson,Masters 1,88.2,93,40,M,Single-ply,,,,,120,140,160,160,,,,,160,B,1
Constantinos Alexopoulos,Masters 1,142.2,120+,44,M,Raw,,,,,155,165,175,175,,,,,175,B,1
Hamish Tahana,Open,92.7,93,25,M,Raw,,,,,140,150,165,165,,,,,165,B,1
Aron Noble,Open,66,66,42,M,Raw,,,,,80,90,100,100,,,,,100,B,1
Luke Sowerby,Open,102,105,33,M,Raw,,,,,130,140,-145,140,,,,,140,B,1
Harley Kamura,Open,156.7,120+,24,M,Raw,,,,,160,180,-200,180,,,,,180,B,1
Luke Tihema,Open,135.4,120+,37,M,Raw,,,,,145,-150,,145,,,,,145,B,2
