Name,Team,Sex,BodyweightKg,BirthYear,Squat1Kg,Squat2Kg,Squat3Kg,Best3SquatKg,Bench1Kg,Bench2Kg,Bench3Kg,Best3BenchKg,Deadlift1Kg,Deadlift2Kg,Deadlift3Kg,Best3DeadliftKg,TotalKg,Place,WeightClassKg,Event,Division,Equipment,BirthDate
Anja Schreiner,SC Oberölsbach,F,48.4,1993,-147.5,152.5,-155,152.5,90,97.5,100,100,137.5,145,150,150,402.5,3,52,SBD,Open,Single-ply,
Ira Neitzel,Colonia,F,51.5,1981,125,-130,130,130,67.5,72.5,75,75,105,115,125,125,330,10,52,SBD,Open,Single-ply,
Anna Lea Schröder,KG Bergen - Gostorf,F,59.6,2003,40,55,65,65,25,32.5,-35,32.5,60,80,92.5,92.5,190,15,63,SBD,Open,Single-ply,
Emily Finnern,Herrnburger AV,F,60.4,2000,147.5,155,165,165,-110,-110,110,110,130,140,150,150,425,8,63,SBD,Open,Single-ply,
Tabea Wiedenhofer,SAV Erfurt,F,62,1996,155,162.5,,162.5,92.5,100,105,105,125,140,155,155,422.5,2,63,SBD,Open,Single-ply,
Elke Erbs,KBV Bautzen e.V.,F,70.2,1984,-190,190,-200,190,70,95,-105,95,150,162.5,-167.5,162.5,447.5,11,72,SBD,Open,Single-ply,
Michelle Barth,ACS,F,70.8,1994,170,177.5,190,190,105,110,115,115,120,130,-140,130,435,G,72,SBD,Open,Single-ply,
Diana Bäder,KSV Mainz,F,71.2,1997,112.5,120,125,125,60,65,67.5,67.5,130,137.5,140,140,332.5,7,72,SBD,Open,Single-ply,
Katja Broxtermann,Sanssouci GYM Potsdam,F,73.9,1986,-195,-195,195,195,125,130,-135,130,155,162.5,167.5,167.5,492.5,4,84,SBD,Open,Single-ply,
Jonathan Bertuch,SAV Erfurt,M,65.5,1995,160,167.5,172.5,172.5,120,125,130,130,200,210,215,215,517.5,2,66,SBD,Open,Single-ply,
Huu Phuoc Le,KG FO-MUC,M,68.5,1993,205,215,225,225,145,157.5,165,165,190,200,-205,200,590,5,74,SBD,Open,Single-ply,
Clemens Lück,KG Bergen - Gostorf,M,73,1991,180,190,205,205,120,127.5,132.5,132.5,217.5,230,240,240,577.5,15,74,SBD,Open,Single-ply,
Sebastian Kienast,Herrnburger AV,M,74.4,1981,-220,220,227.5,227.5,110,115,-120,115,215,227.5,235,235,577.5,8,83,SBD,Open,Single-ply,
Andreas Weißmann,TSV Katzwang,M,76.1,1991,150,157.5,162.5,162.5,110,115,-120,115,170,180,-190,180,457.5,14,83,SBD,Open,Single-ply,
Armin Seynstahl,TSV Katzwang,M,78.1,1991,160,170,180,180,110,115,-117.5,115,190,205,215,215,510,14,83,SBD,Open,Single-ply,
Jonas Diefenbach,KSV Essen,M,78.3,1998,225,245,,245,-145,145,-152.5,145,207.5,225,-232.5,225,615,6,83,SBD,Open,Single-ply,
Marius Milla,KSV Mainz,M,80.6,1993,275,290,,290,100,182.5,-200,182.5,275,290,-310,290,762.5,7,83,SBD,Open,Single-ply,
Simon Eichler,KG FO-MUC,M,81.45,1993,240,-247.5,-252.5,240,180,-187.5,187.5,187.5,230,247.5,260,260,687.5,5,83,SBD,Open,Single-ply,
René Borchert,VfB Klötze,M,81.5,1998,220,235,245,245,165,172.5,177.5,177.5,180,190,-195,190,612.5,13,83,SBD,Open,Single-ply,
Jan Smolczyk,Colonia,M,82.1,1970,200,220,230,230,155,160,-165,160,230,240,250,250,640,10,83,SBD,Open,Single-ply,
Manuel Gonnermann,SAV Erfurt,M,83.3,1993,280,-295,295,295,-180,180,190,190,250,265,275,275,760,2,93,SBD,Open,Single-ply,
Marco Dömling,SG Randersacker,M,83.35,1976,210,230,-240,230,135,-145,-145,135,200,215,220,220,585,12,93,SBD,Open,Single-ply,
Ron Kronschwitz,Sanssouci GYM Potsdam,M,86.3,1981,250,-270,270,270,200,210,-215,210,240,250,,250,730,4,93,SBD,Open,Single-ply,
Andreas Staude,TSV Katzwang,M,87.3,1979,190,210,220,220,142.5,147.5,-152.5,147.5,240,255,-265,255,622.5,14,93,SBD,Open,Single-ply,
Lorenzo Schütze,KBV Bautzen e.V.,M,90,1999,200,210,220,220,140,-145,-150,140,240,255,270,270,630,11,93,SBD,Open,Single-ply,
Sebastian Heger,SC Oberölsbach,M,90.1,1992,275,-285,-285,275,-190,-190,-190,,-230,,,,,DQ,93,SBD,Open,Single-ply,
Thomas Lehmeier,SC Oberölsbach,M,90.2,1991,-295,300,-305,300,-155,155,-180,155,225,240,260,260,715,3,93,SBD,Open,Single-ply,
Matthias Zielke,Herrnburger AV,M,91.4,1988,240,250,260,260,140,-150,-150,140,-275,280,-302.5,280,680,8,93,SBD,Open,Single-ply,
Sergej Sergeev,KBV Bautzen e.V.,M,91.5,1994,220,235,250,250,140,152.5,-160,152.5,245,260,270,270,672.5,11,93,SBD,Open,Single-ply,
Sascha Stendebach,KSV Mainz,M,92.5,1991,255,265,270,270,192.5,-200,200,200,350,370,-375,370,840,7,93,SBD,Open,Raw,
Michael Hurtig,KBV Bautzen e.V.,M,92.9,1982,235,-250,-250,235,160,167.5,175,175,260,275,-287.5,275,685,11,93,SBD,Open,Single-ply,
Kai Gißler,Köthener SV,M,93.6,1970,160,170,180,180,115,-120,-120,115,200,205,207.5,207.5,502.5,16,105,SBD,Open,Single-ply,
Ronny Dießner,Köthener SV,M,94.2,1981,200,-210,210,210,145,152.5,160,160,-220,220,230,230,600,16,105,SBD,Open,Single-ply,
Sascha Calleger,TSV Katzwang,M,95.6,1983,210,220,230,230,162.5,170,-172.5,170,235,250,-260,250,650,14,105,SBD,Open,Single-ply,
Konrad Burghardt,AC Siegfried,M,96.7,1974,270,-290,290,290,220,230,237.5,237.5,270,285,-290,285,812.5,1,105,SBD,Open,Single-ply,
Sascha Krause,Herrnburger AV,M,97.9,1990,255,265,-270,265,160,177.5,185,185,230,242.5,250,250,700,8,105,SBD,Open,Single-ply,
René Ullerich,KG Bergen - Gostorf,M,100,1978,280,310,,310,180,-205,-205,180,250,280,-300,280,770,15,105,SBD,Open,Single-ply,
Joshua Hillebrand,Colonia,M,100.7,1989,200,215,230,230,125,130,-135,130,230,240,-250,240,600,10,105,SBD,Open,Single-ply,
Matthias Simpig,Sanssouci GYM Potsdam,M,101.1,1972,250,-260,-260,250,175,182.5,-190,182.5,230,240,247.5,247.5,680,4,105,SBD,Open,Single-ply,
Mike Schollbach,SAV Erfurt,M,101.5,1981,345,,,345,230,-242.5,-245,230,250,275,300,300,875,2,105,SBD,Open,Single-ply,
Marc James,AC Siegfried,M,101.6,1993,275,-290,-300,275,170,175,180,180,180,200,245,245,700,1,105,SBD,Open,Single-ply,
Daniel Grieb,KG Bergen - Gostorf,M,103.5,2001,90,100,115,115,100,110,-117.5,110,180,190,200,200,425,15,105,SBD,Open,Single-ply,
Steffen Szameit,KSV Essen,M,103.7,1990,220,230,235,235,155,165,-170,165,240,260,270,270,670,6,105,SBD,Open,Single-ply,
Milan Bogner,SG Randersacker,M,104.2,1988,-250,-250,250,250,220,225,-230,225,250,-265,-265,250,725,12,105,SBD,Open,Single-ply,
Christian Flueras,Sanssouci GYM Potsdam,M,104.7,1996,300,,,300,250,265,-270,265,250,265,275,275,840,4,105,SBD,Open,Single-ply,
Simon Bausewein,SG Randersacker,M,105,1997,275,282.5,-287.5,282.5,175,180,185,185,240,250,-255,250,717.5,12,105,SBD,Open,Single-ply,
Dirk Motzkus,SG Randersacker,M,110,1977,235,245,255,255,195,-240,-240,195,190,220,227.5,227.5,677.5,12,120,SBD,Open,Single-ply,
Tim Daniel Konertz,Colonia,M,111.1,1989,275,285,295,295,170,180,190,190,315,325,335,335,820,10,120,SBD,Open,Single-ply,
Chris Röper,AC Siegfried,M,111.3,1987,250,270,285,285,250,-260,-265,250,250,265,280,280,815,1,120,SBD,Open,Single-ply,
Steven Podas,VfB Klötze,M,112.7,1989,300,-320,-320,300,180,190,-200,190,250,265,-280,265,755,13,120,SBD,Open,Single-ply,
Malte Fleissner,KSV Essen,M,113,1989,300,322.5,335,335,245,-255,-255,245,-300,320,-335,320,900,6,120,SBD,Open,Single-ply,
Christian Lamper,KG FO-MUC,M,115.4,1995,325,330,-335,330,-235,235,242.5,242.5,255,270,280,280,852.5,5,120,SBD,Open,Single-ply,
Tobias Jahn,SV Motor Barth e.V.,M,116.1,2001,192.5,202.5,210,210,115,122.5,-130,122.5,190,205,215,215,547.5,9,120,SBD,Open,Single-ply,
Michel Jähnel,Köthener SV,M,119,1992,255,-270,-270,255,200,205,-212.5,205,255,265,270,270,730,16,120,SBD,Open,Single-ply,
Christoph Seefeld,KG FO-MUC,M,120.2,1980,350,360,-365,360,-285,-285,-285,,300,315,-325,315,,DQ,120+,SBD,Open,Single-ply,
René Groß,SV Motor Barth e.V.,M,123.1,1981,265,285,300,300,280,300,-345,300,240,260,-275,260,860,9,120+,SBD,Open,Single-ply,
Daniel Keil #1,KSV Essen,M,123.3,1988,280,-300,300,300,230,240,-250,240,215,235,240,240,780,6,120+,SBD,Open,Single-ply,
Jan Schnoor,SV Motor Barth e.V.,M,130,1992,250,270,285,285,165,175,-185,175,270,280,-290,280,740,9,120+,SBD,Open,Single-ply,
Sven Lange,SV Motor Barth e.V.,M,131.3,1980,240,260,-275,260,245,265,-275,265,230,245,-260,245,770,9,120+,SBD,Open,Single-ply,
Kevin Jäger,AC Siegfried,M,133.8,1995,295,315,335,335,290,310,320,320,260,280,-285,280,935,1,120+,SBD,Open,Single-ply,
René Fiedler,Köthener SV,M,136.7,1982,-260,-265,-265,,190,,,190,245,,,245,,DQ,120+,SBD,Open,Single-ply,
Tobias Zinserling,SC Oberölsbach,M,148.6,1978,350,362.5,-375,362.5,-240,240,-250,240,352.5,-360,-375,352.5,955,3,120+,SBD,Open,Single-ply,
Jan Griegat,VfB Klötze,M,183.2,1993,300,320,,320,225,-235,-235,225,240,250,-260,250,795,13,120+,SBD,Open,Single-ply,
