Place,Sex,Name,Event,Division,WeightClassKg,Equipment,BodyweightKg,Best3SquatKg,Best3BenchKg,Best3DeadliftKg,TotalKg,BirthYear
1,M,Saldana Jorge,SBD,MR-T1,53,Raw,48.6,80,60,135,275,1997
2,M,Douglas Newcomer Jr,SBD,MR-T1,53,Raw,48.5,55,52.5,115,222.5,
1,M,Tomas E. Vega,SBD,MR-T2,59,Raw,57.3,125,85,170,380,
1,M,Brett Benedix,SBD,MR-T2,74,Raw,67,195,90,200,485,
2,M,Zac Skeltis,SBD,MR-T2,74,Raw,72.5,165,102.5,207.5,475,1995
3,M,Brett Benedix,SBD,MR-T2,74,Raw,66.4,195,85,190,470,
4,M,Austin Gauldin,SBD,MR-T2,74,Raw,73.4,145,110,177.5,432.5,1995
1,M,Matthew Koe,SBD,MR-T2,83,Raw,81.1,182.5,125,225,532.5,1996
1,M,Jake Benedix,SBD,MR-T3,59,Raw,58.6,132.5,92.5,162.5,387.5,1994
1,M,Sawyer Yandell,SBD,MR-T3,66,Raw,60.7,165,85,195,445,1994
2,M,Jake Benedix,SBD,MR-T3,66,Raw,59.3,142.5,85,165,392.5,1994
1,M,Ryan Hurst,SBD,MR-T3,74,Raw,66.4,135,80,195,410,1994
DQ,M,Michael Simon,SBD,MR-T3,74,Raw,68.2,,125,205,,1970
1,M,Richard Peña Jr,SBD,MR-T3,93,Raw,88.7,212.5,115,200,527.5,
2,M,Hayden Fulwood,SBD,MR-T3,93,Raw,83.9,152.5,107.5,195,455,1994
1,M,Zak Jenn,SBD,MR-T3,105,Raw,98.8,210,162.5,250,622.5,1993
1,M,Matthew Fox,SBD,MR-Jr,59,Raw,58.4,145,115,170,430,1991
2,M,Paritosh Bhatnagar,SBD,MR-Jr,59,Raw,54.5,65,55,105,225,1992
1,M,Carlos Buenfil,SBD,MR-Jr,66,Raw,59.9,155,100,202.5,457.5,1990
2,M,Xaviar Clark,SBD,MR-Jr,66,Raw,59.1,107.5,105,182.5,395,1989
1,M,Jordan Berke,SBD,MR-Jr,74,Raw,74,190,157.5,212.5,560,1989
2,M,Hector Garcia,SBD,MR-Jr,74,Raw,73.1,180,135,220,535,1989
3,M,Richard Hernandez,SBD,MR-Jr,74,Raw,67.1,175,127.5,182.5,485,1992
4,M,Raymundo Castro,SBD,MR-Jr,74,Raw,67,162.5,102.5,190,455,
1,M,Mike Loncharich,SBD,MR-Jr,83,Raw,82.2,237.5,170,292.5,700,
2,M,Jonathan Chapa,SBD,MR-Jr,83,Raw,80.7,227.5,145,270,642.5,1990
3,M,Archer Zachary,SBD,MR-Jr,83,Raw,81.7,230,137.5,275,642.5,1992
4,M,Tony Schwebach,SBD,MR-Jr,83,Raw,82,225,137.5,267.5,630,1990
5,M,Michael Srokowski,SBD,MR-Jr,83,Raw,80.6,195,165,255,615,1989
6,M,Samuel Derynck,SBD,MR-Jr,83,Raw,74.7,187.5,122.5,232.5,542.5,1992
7,M,Elliot Rowe,SBD,MR-Jr,83,Raw,81.2,200,130,210,540,1989
8,M,Chris Meyers,SBD,MR-Jr,83,Raw,81.3,175,140,222.5,537.5,1990
9,M,Chad Penson,SBD,MR-Jr,83,Raw,74.7,177.5,145,205,527.5,
DQ,M,Andrew Pichardo,SBD,MR-Jr,83,Raw,81.2,,122.5,230,,1990
1,M,Ian Bell,SBD,MR-Jr,93,Raw,89,257.5,147.5,320.5,725.5,1992
2,M,Charles Friday,SBD,MR-Jr,93,Raw,87.1,207.5,137.5,235,580,1990
3,M,Joshua Heimbecker,SBD,MR-Jr,93,Raw,87,180,150,235,565,1991
4,M,James Shackelford,SBD,MR-Jr,93,Raw,88.7,210,145,207.5,562.5,1989
5,M,Andrew DiCecco,SBD,MR-Jr,93,Raw,89.2,170,140,240,550,1989
DQ,M,Andrew Hill,SBD,MR-Jr,93,Raw,86.9,,127.5,237.5,,1991
1,M,Bottesy Bailey,SBD,MR-Jr,105,Raw,94.2,237.5,165,310,712.5,1992
2,M,Cody Miller,SBD,MR-Jr,105,Raw,99.5,255,180,277.5,712.5,1990
3,M,Gregory Johnson,SBD,MR-Jr,105,Raw,93.2,240,150,312.5,702.5,1990
1,M,Will Wright,SBD,MR-Jr,120,Raw,109.3,255,167.5,282.5,705,1992
1,M,Nate Wylie,SBD,MR-O,66,Raw,65,162.5,105,212.5,480,1981
1,M,Scott Meyers,SBD,MR-O,74,Raw,72.6,200,152.5,242.5,595,1984
2,M,Shawn Frasquillo,SBD,MR-O,74,Raw,66.8,190,153,217.5,560.5,1986
3,M,Mike Zourdos,SBD,MR-O,74,Raw,73.8,205,115,225,545,1985
4,M,Brent Kim,SBD,MR-O,74,Raw,70.2,197.5,125,195,517.5,1986
1,M,Tertitski Alex,SBD,MR-O,83,Raw,81.8,247.5,160,307.5,715,1978
2,M,Vashon Perryman,SBD,MR-O,83,Raw,74.7,242.5,142.5,300,685,1986
3,M,Larry Dyles,SBD,MR-O,83,Raw,82.3,240,167.5,250,657.5,1983
4,M,Jerry Zsido,SBD,MR-O,83,Raw,81.7,205,147.5,272.5,625,1983
5,M,Anthony D'urso,SBD,MR-O,83,Raw,82.1,230,135,255,620,
6,M,Ross Leppala,SBD,MR-O,83,Raw,82.1,200,172.5,227.5,600,1984
7,M,Jordan Feigenbaum,SBD,MR-O,83,Raw,80.7,200,145,250,595,1985
8,M,Frank Wu,SBD,MR-O,83,Raw,81.7,190,125,270,585,1983
9,M,Tim Lamando,SBD,MR-O,83,Raw,74.7,215,122.5,237.5,575,1979
10,M,Jorge Unigarro,SBD,MR-O,83,Raw,80.8,190,137.5,247.5,575,1982
11,M,Rory Tatum,SBD,MR-O,83,Raw,80.9,200,120,212.5,532.5,1988
12,M,Ramiro Espinosa,SBD,MR-O,83,Raw,74.3,167.5,135,230,532.5,1988
13,M,Tanner Autrey,SBD,MR-O,83,Raw,81,172.5,120,197.5,490,
14,M,Joe Warpeha,SBD,MR-O,83,Raw,74.9,135,145,185,465,1976
15,M,Eric Reeves,SBD,MR-O,83,Raw,74.4,152.5,117.5,185,455,1978
1,M,LS McClain,SBD,MR-O,93,Raw,89.2,242.5,200.5,295,738,1978
2,M,Derek Gove,SBD,MR-O,93,Raw,89.3,250,160,285,695,1987
3,M,Anthony Loreto,SBD,MR-O,93,Raw,89.6,240,150,297.5,687.5,1986
4,M,Cardyl Trionfante,SBD,MR-O,93,Raw,89.6,240,152.5,280,672.5,1985
5,M,Tommy Janusz,SBD,MR-O,93,Raw,89,207.5,187.5,260,655,1986
6,M,Michael Blackwelder,SBD,MR-O,93,Raw,88.8,207.5,160,255,622.5,
DQ,M,Mike Haertel,SBD,MR-O,93,Raw,88,,142.5,250,,1976
DQ,M,Otar Datan,SBD,MR-O,93,Raw,85.2,195,115,,,1984
1,M,Nick Tylutki,SBD,MR-O,105,Raw,100,295,175,305,775,1978
2,M,Eli Burks,SBD,MR-O,105,Raw,96.1,245,175,330,750,1987
3,M,Nathan Nord,SBD,MR-O,105,Raw,103.9,265,192.5,280,737.5,1974
4,M,Matt Nolan,SBD,MR-O,105,Raw,96.4,250,177.5,307.5,735,1986
5,M,JC Wright,SBD,MR-O,105,Raw,99.2,290,160,277.5,727.5,
6,M,Jordan Krogman,SBD,MR-O,105,Raw,98.9,260,170,275,705,1987
7,M,Arin Canecchio,SBD,MR-O,105,Raw,97.8,255,175,260,690,1988
8,M,Austin Sutton,SBD,MR-O,105,Raw,94,247.5,147.5,270,665,1985
9,M,Mike Petrovich,SBD,MR-O,105,Raw,98.5,247.5,155,235,637.5,
10,M,Mark Riebel,SBD,MR-O,105,Raw,98.6,217.5,160,242.5,620,1981
11,M,Chris Martinez,SBD,MR-O,105,Raw,97.9,210,165,217.5,592.5,1991
12,M,Brett Wise,SBD,MR-O,105,Raw,97.5,215,150,225,590,1981
13,M,Norman Palencia,SBD,MR-O,105,Raw,97.8,200,142.5,215,557.5,1987
14,M,Arian Khamesi,SBD,MR-O,105,Raw,97.6,207.5,120,227.5,555,1988
DQ,M,Grant McCaulley,SBD,MR-O,105,Raw,99.4,190,,,,1981
1,M,Trettin Robert,SBD,MR-O,120,Raw,108.3,280,205,282.5,767.5,1986
2,M,Carl LaRovera Jr,SBD,MR-O,120,Raw,109.4,255,167.5,300,722.5,
3,M,Jason Wells,SBD,MR-O,120,Raw,109.6,260,170,290,720,1976
4,M,Kyle Stewart,SBD,MR-O,120,Raw,108.4,222.5,192.5,297.5,712.5,1988
5,M,Chris Campbell,SBD,MR-O,120,Raw,107.9,222.5,190,252.5,665,1987
1,M,Scott Grade,SBD,MR-M1a,83,Raw,79.3,195,160,227.5,582.5,1971
2,M,Sean Dunston,SBD,MR-M1a,83,Raw,81.5,207.5,115,230,552.5,1970
3,M,Michael Macri,SBD,MR-M1a,83,Raw,74.2,182.5,97.5,182.5,462.5,1969
1,M,Troy Saunders,SBD,MR-M1a,93,Raw,89.1,242.5,160,295,697.5,1968
2,M,Chad Rexrode,SBD,MR-M1a,93,Raw,87.8,225,162.5,232.5,620,1968
3,M,Timothy Stepney,SBD,MR-M1a,93,Raw,86.9,182.5,145,260,587.5,1969
1,M,Russ McDonnell,SBD,MR-M1a,105,Raw,99.8,265,172.5,265,702.5,
2,M,Kaiser Young,SBD,MR-M1a,105,Raw,96.5,227.5,182.5,227.5,637.5,1971
3,M,Matt Gary,SBD,MR-M1a,105,Raw,98.5,185,142.5,250,577.5,
1,M,Ron Lloyd,SBD,MR-M1a,120,Raw,108.8,242.5,177.5,280,700,
1,M,Eric Kupperstein,SBD,MR-M1b,59,Raw,55.9,172.5,100,250.5,523,1966
1,M,Jeff Phillips #1,SBD,MR-M1b,74,Raw,67,182.5,117.5,227.5,527.5,1965
2,M,Doug Newcomer,SBD,MR-M1b,74,Raw,66.6,105,92.5,157.5,355,1965
1,M,Donovan Thompson,SBD,MR-M1b,83,Raw,82,215,160,225,600,1966
1,M,Anthony Succarotte,SBD,MR-M1b,105,Raw,102.2,250,200,227.5,677.5,1965
2,M,Gregory Titus,SBD,MR-M1b,105,Raw,98.9,187.5,172.5,230,590,
1,M,Lonnie Leger,SBD,MR-M1b,105,Raw,95.4,172.5,117.5,182.5,472.5,1966
1,M,Phillip Wylie,SBD,MR-M1b,120,Raw,109.2,237.5,165,272.5,675,1965
1,M,Gary Kaiser,SBD,MR-M2a,74,Raw,73.4,182.5,137.5,220,540,1960
2,M,Enrique Guerra,SBD,MR-M2a,74,Raw,74,175,122.5,185,482.5,1958
1,M,Larry Maile,SBD,MR-M2a,83,Raw,82.4,207.5,145,230,582.5,1958
2,M,Bradford Olson,SBD,MR-M2a,83,Raw,74.5,182.5,142.5,205,530,1962
3,M,Duane Young,SBD,MR-M2a,83,Raw,74.8,147.5,102.5,190,440,1960
1,M,Chuck Akers,SBD,MR-M2a,93,Raw,89.8,190,130,230,550,1959
1,M,Robert Harris,SBD,MR-M2a,105,Raw,98.9,187.5,145,232.5,565,
2,M,Scott Brockelman,SBD,MR-M2a,105,Raw,99.4,200,105,205,510,1959
1,M,Gary Grahn,SBD,MR-M2b,93,Raw,89.7,157.5,115,185,457.5,1955
1,M,Pat Roberts,SBD,MR-M2b,120,Raw,107.4,235,157.5,292.5,685,1957
1,M,Bob Yamasaki,SBD,MR-M3a,74,Raw,73.9,197.5,117.5,227.5,542.5,1952
1,M,Jim Klostergaard,SBD,MR-M3a,83,Raw,82.3,105,130,165,400,1948
2,M,Conrad Martinez,SBD,MR-M3a,83,Raw,74.5,60,112.5,127.5,300,1950
1,M,Stan Mingus,SBD,MR-M3a,105,Raw,98.8,200,157.5,220,577.5,1949
2,M,Charles Gilmore,SBD,MR-M3a,105,Raw,97.6,110,120,185,415,1952
3,M,John Harp,SBD,MR-M3a,105,Raw,97.3,110,125,160,395,1952
1,M,Joe Lucio,SBD,MR-M3b,93,Raw,88.4,147.5,100,175,422.5,1947
1,F,Elizabeth Monk,SBD,FR-T2,57,Raw,54.5,85.5,60,110,255.5,1996
1,F,Ella Lowenberg,SBD,FR-T2,72,Raw,65.6,80,45,105,230,1996
DQ,F,Taylor Gifford,SBD,FR-T3,57,Raw,55.8,70,37.5,,,1971
1,F,Krystin Krodle,SBD,FR-T3,63,Raw,59.6,87.5,55,100,242.5,1994
1,F,Kyra Wolters,SBD,FR-T3,72,Raw,67.4,125,52.5,130,307.5,1993
1,F,Alexus Cano,SBD,FR-T3,84,Raw,74.8,100,52.5,110,262.5,1994
1,F,Molly Zunker,SBD,FR-Jr,52,Raw,47.1,92.5,52.5,132.5,277.5,1991
1,F,Laura McGuill,SBD,FR-Jr,63,Raw,58.5,117.5,57.5,145,320,
1,F,Emily Gray,SBD,FR-Jr,72,Raw,67.1,95,70,125,290,1990
1,F,Mickey Belaineh,SBD,FR-Jr,84,Raw,82.4,127.5,72.5,172.5,372.5,
2,F,Chelsea Wrenn,SBD,FR-Jr,84,Raw,72.7,120,72.5,170,362.5,1989
1,F,Amanda Padgett,SBD,FR-O,52,Raw,50.8,117.5,65,155,337.5,1987
2,F,Zigler Ana,SBD,FR-O,52,Raw,47.3,105,55,130,290,1987
3,F,Colleen McNamara,SBD,FR-O,52,Raw,47.4,92.5,57.5,115,265,1981
4,F,Sonya Picarello,SBD,FR-O,52,Raw,51.6,75,47.5,107.5,230,1973
5,F,Cacie Mershon,SBD,FR-O,52,Raw,48.3,75,57.5,95,227.5,1974
DQ,F,Marisa Inda,SBD,FR-O,52,Raw,50.2,,70,147.5,,1976
1,F,Pamela Bartz,SBD,FR-O,57,Raw,55,125,67.5,137.5,330,1987
2,F,Carissa Stith,SBD,FR-O,57,Raw,53.5,115,62.5,117.5,295,1984
3,F,Danielle Bennett,SBD,FR-O,57,Raw,54.8,105,60,122.5,287.5,1986
4,F,Candice Hodges,SBD,FR-O,57,Raw,53.9,97.5,60,130,287.5,1987
5,F,Shayna L. Sutton,SBD,FR-O,57,Raw,54.7,90,55,140,285,
6,F,Rachel Warpeha,SBD,FR-O,57,Raw,55.9,85,60,115,260,1984
7,F,Melissa Hunt,SBD,FR-O,57,Raw,53.6,90,55,112.5,257.5,
DQ,F,Laura McCaulley,SBD,FR-O,57,Raw,56,,40,112.5,,1981
1,F,Jennifer Thompson #1,SBD,FR-O,63,Raw,60,143.5,132.5,190,466,1973
2,F,Courtney Modecki,SBD,FR-O,63,Raw,58,130,67.5,147.5,345,1983
3,F,Janel Brown,SBD,FR-O,63,Raw,57.3,117.5,60,142.5,320,1973
4,F,Jessica Doyle,SBD,FR-O,63,Raw,58.8,85,42.5,105,232.5,1996
1,F,Kimberly Walford,SBD,FR-O,72,Raw,65.1,155,105,225,485,1978
2,F,Sandra Sebastian,SBD,FR-O,72,Raw,71.6,132.5,82.5,185,400,1986
3,F,Wendy C. Hajik,SBD,FR-O,72,Raw,67,137.5,67.5,150,355,
4,F,Vanessa Gale,SBD,FR-O,72,Raw,67,127.5,65,152.5,345,1988
5,F,Cristina Escalante,SBD,FR-O,72,Raw,64.1,120,72.5,140,332.5,1986
6,F,Kimberly Harrell,SBD,FR-O,72,Raw,69.3,90,52.5,122.5,265,1981
1,F,Jennifer Amann,SBD,FR-O,84,Raw,74.4,137.5,70,150,357.5,
2,F,Rebecca Main,SBD,FR-O,84,Raw,74.4,85,57.5,100,242.5,1984
1,F,Marcia Darbouze,SBD,FR-O,84+,Raw,88.4,142.5,65,182.5,390,1988
1,F,Suzanne Hartwig-Gary,SBD,FR-M1a,52,Raw,52,145.5,70,147.5,363,1968
1,F,Susan Stephens,SBD,FR-M1a,57,Raw,55.8,112.5,65,145,322.5,
DQ,F,Jo Ann Aita,SBD,FR-M1a,57,Raw,52.4,,,160,,
1,F,Theresa Willis,SBD,FR-M1a,63,Raw,59.4,67.5,40,102.5,210,1970
1,F,Sheryl Condon,SBD,FR-M1a,72,Raw,71.2,135,70,165,370,1972
2,F,Jill Joiner-Wong,SBD,FR-M1a,72,Raw,66.2,132.5,75,155,362.5,1969
3,F,Lara Sturm,SBD,FR-M1a,72,Raw,64.4,112.5,67.5,132.5,312.5,1968
1,F,Sebrina Davis,SBD,FR-M1a,84,Raw,77.4,152,87.5,192.5,432,1970
2,F,Tammy Walker,SBD,FR-M1a,84,Raw,83.5,127.5,110,155,392.5,1968
3,F,Bonnie Caudill,SBD,FR-M1a,84,Raw,73,82.5,52.5,120,255,
DQ,F,Melissa Steinke,SBD,FR-M1b,57,Raw,53.9,,40,100,,1964
1,F,Darline Buchannan,SBD,FR-M1b,72,Raw,65.4,97.5,70,142.5,310,
1,F,Tina Robinson,SBD,FR-M1b,84+,Raw,88.3,137.5,115,160,412.5,1967
1,F,Jennifer Kingsley,SBD,FR-M2a,52,Raw,51.1,92.5,57.5,130,280,1961
1,F,Lynne Homan,SBD,FR-M2a,57,Raw,55.6,85,65,135,285,1962
1,F,Bernadine Tatulinski,SBD,FR-M2a,63,Raw,58.5,90,55,112.5,257.5,1958
DQ,F,Joanne Craig,SBD,FR-M2a,63,Raw,59,95,,115,,1961
1,F,Lisa McAdams,SBD,FR-M2a,84,Raw,74.2,87.5,50,147.5,285,1958
1,F,Jane E. Hemby,SBD,FR-M3a,72,Raw,64,62.5,52.5,95,210,
1,F,Patricia Kroken,SBD,FR-M3b,84,Raw,82.4,72.5,37.5,110,220,1947
